Understanding the Performance of Random Intercepts Latent Transition Analysis (RI-LTA): A Monte Carlo Simulation Study with MplusAutomation
…
# Check initial counts to ensure each FileName group has at least 500 rows
initial_counts <- filtered_data_with_no_violations %>%
  group_by(FileName) %>%
  summarize(Initial_Count = n(), .groups = "drop") %>%
  drop_na()  # Remove any NA values quietly within the pipeline

# Print the initial_counts table for review
cat("Initial Counts Table:\n")

Initial Counts Table:

print(initial_counts)

# A tibble: 144 × 2
   FileName                                    Initial_Count
   <chr>                                               <int>
 1 rilta_rilta_n_1000_tp_-0.41_th_1_lambda_0             599
 2 rilta_rilta_n_1000_tp_-0.41_th_1_lambda_1             602
 3 rilta_rilta_n_1000_tp_-0.41_th_1_lambda_1.5           599
 4 rilta_rilta_n_1000_tp_-0.41_th_1_lambda_2             597
 5 rilta_rilta_n_1000_tp_-0.41_th_1_lambda_2.5           595
 6 rilta_rilta_n_1000_tp_-0.41_th_1_lambda_3             610
 7 rilta_rilta_n_1000_tp_-0.85_th_1_lambda_0             585
 8 rilta_rilta_n_1000_tp_-0.85_th_1_lambda_1             594
 9 rilta_rilta_n_1000_tp_-0.85_th_1_lambda_1.5           602
10 rilta_rilta_n_1000_tp_-0.85_th_1_lambda_2             597
# ℹ 134 more rows
…
  # Print the groups that don't meet the requirement
  insufficient_groups <- initial_counts %>% filter(Initial_Count < 500)
  cat("Groups with insufficient rows:\n")
  print(insufficient_groups)
}

All FileName groups had at least 500 rows. Sampling performed.
Sampled Data Table:
# A tibble: 72,000 × 34
   FileName  Replication TRANS11 SE_11 Ec1u1 Ec1u2 Ec1u3 Ec1u4 Ec1u5 Ec2u1 Ec2u2
   <chr>     <chr>       <chr>   <chr> <dbl> <dbl> <dbl> <dbl> <dbl> <dbl> <dbl>
 1 rilta_ri… 830         0.4190… 0.03…  0.75  0.75  0.75  0.76  0.72  0.28  0.29
 2 rilta_ri… 32          0.4111… 0.03…  0.74  0.71  0.74  0.75  0.74  0.27  0.28
 3 rilta_ri… 131         0.3586… 0.03…  0.73  0.74  0.77  0.74  0.74  0.28  0.26
 4 rilta_ri… 456         0.4430… 0.03…  0.72  0.75  0.7   0.71  0.71  0.25  0.26
 5 rilta_ri… 450         0.3765… 0.03…  0.75  0.76  0.76  0.77  0.75  0.28  0.25
 6 rilta_ri… 731         0.3640… 0.04…  0.72  0.76  0.75  0.71  0.73  0.27  0.26
 7 rilta_ri… 458         0.4826… 0.03…  0.73  0.71  0.72  0.67  0.7   0.24  0.25
 8 rilta_ri… 815         0.4466… 0.03…  0.72  0.7   0.69  0.69  0.74  0.25  0.24
 9 rilta_ri… 745         0.3922… 0.03…  0.74  0.72  0.74  0.72  0.72  0.25  0.27
10 rilta_ri… 546         0.3627… 0.03…  0.75  0.75  0.74  0.72  0.73  0.27  0.29
# ℹ 71,990 more rows
# ℹ 23 more variables: Ec2u3 <dbl>, Ec2u4 <dbl>, Ec2u5 <dbl>, Ac1u1 <dbl>,
#   Ac1u2 <dbl>, Ac1u3 <dbl>, Ac1u4 <dbl>, Ac1u5 <dbl>, Ac2u1 <dbl>,
#   Ac2u2 <dbl>, Ac2u3 <dbl>, Ac2u4 <dbl>, Ac2u5 <dbl>, X1v2_item1 <dbl>,
#   X1v2_item2 <dbl>, X1v2_item3 <dbl>, Flag_M1 <dbl>, Any_Violation <dbl>,
#   ErrorFlag <dbl>, N <fct>, Population <fct>, Lambda <chr>, Transitions <fct>
…
