Understanding the Performance of Random Intercepts Latent Transition Analysis (RI-LTA): A Monte Carlo Simulation Study with MplusAutomation
…
# Check initial counts to ensure each FileName group has at least 500 rows
initial_counts <- filtered_data_with_no_violations %>%
  group_by(FileName) %>%
  summarize(Initial_Count = n(), .groups = "drop") %>%
  drop_na()  # Remove any NA values quietly within the pipeline

# Print the initial_counts table for review
cat("Initial Counts Table:\n")

Initial Counts Table:

print(initial_counts)

# A tibble: 144 × 2
   FileName                                    Initial_Count
   <chr>                                               <int>
 1 rilta_rilta_n_1000_tp_-0.41_th_1_lambda_0             633
 2 rilta_rilta_n_1000_tp_-0.41_th_1_lambda_1             878
 3 rilta_rilta_n_1000_tp_-0.41_th_1_lambda_1.5           753
 4 rilta_rilta_n_1000_tp_-0.41_th_1_lambda_2             969
 5 rilta_rilta_n_1000_tp_-0.41_th_1_lambda_2.5          1010
 6 rilta_rilta_n_1000_tp_-0.41_th_1_lambda_3            1032
 7 rilta_rilta_n_1000_tp_-0.85_th_1_lambda_0             654
 8 rilta_rilta_n_1000_tp_-0.85_th_1_lambda_1             694
 9 rilta_rilta_n_1000_tp_-0.85_th_1_lambda_1.5           733
10 rilta_rilta_n_1000_tp_-0.85_th_1_lambda_2             936
# ℹ 134 more rows
…
  # Print the groups that don't meet the requirement
  insufficient_groups <- initial_counts %>% filter(Initial_Count < 500)
  cat("Groups with insufficient rows:\n")
  print(insufficient_groups)
}

All FileName groups had at least 500 rows. Sampling performed.
Sampled Data Table:
# A tibble: 72,000 × 34
   FileName  Replication TRANS11 SE_11 Ec1u1 Ec1u2 Ec1u3 Ec1u4 Ec1u5 Ec2u1 Ec2u2
   <chr>     <chr>       <chr>   <chr> <dbl> <dbl> <dbl> <dbl> <dbl> <dbl> <dbl>
 1 rilta_ri… 1827        1.0362… 0.11…  0.51  0.44  0.51  0.52  0.36  0.26  0.27
 2 rilta_ri… 57          1.0004… 0.09…  0.58  0.54  0.41  0.54  0.53  0.26  0.27
 3 rilta_ri… 279         0.9177… 0.11…  0.59  0.62  0.55  0.54  0.56  0.3   0.23
 4 rilta_ri… 1029        1.2310… 0.12…  0.48  0.5   0.66  0.44  0.51  0.29  0.27
 5 rilta_ri… 1019        0.7900… 0.11…  0.39  0.59  0.53  0.56  0.57  0.23  0.29
 6 rilta_ri… 1642        1.0916… 0.13…  0.54  0.53  0.53  0.39  0.57  0.28  0.29
 7 rilta_ri… 1032        0.9597… 0.10…  0.5   0.71  0.5   0.49  0.48  0.28  0.23
 8 rilta_ri… 2039        1.1451… 0.10…  0.35  0.42  0.52  0.47  0.46  0.25  0.29
 9 rilta_ri… 1815        1.1474… 0.11…  0.35  0.44  0.55  0.47  0.47  0.3   0.27
10 rilta_ri… 1670        1.0917… 0.12…  0.5   0.42  0.42  0.52  0.4   0.26  0.27
# ℹ 71,990 more rows
# ℹ 23 more variables: Ec2u3 <dbl>, Ec2u4 <dbl>, Ec2u5 <dbl>, Ac1u1 <dbl>,
#   Ac1u2 <dbl>, Ac1u3 <dbl>, Ac1u4 <dbl>, Ac1u5 <dbl>, Ac2u1 <dbl>,
#   Ac2u2 <dbl>, Ac2u3 <dbl>, Ac2u4 <dbl>, Ac2u5 <dbl>, X1v2_item1 <dbl>,
#   X1v2_item2 <dbl>, X1v2_item3 <dbl>, Flag_M1 <dbl>, Any_Violation <dbl>,
#   ErrorFlag <dbl>, N <fct>, Population <fct>, Lambda <chr>, Transitions <fct>
…
